[gd_scene load_steps=4 format=2]

[ext_resource path="res://src/Fader.gd" type="Script" id=1]

[sub_resource type="Gradient" id=1]
colors = PoolColorArray( 0, 0, 0, 1, 0, 0, 0, 1 )

[sub_resource type="GradientTexture" id=2]
gradient = SubResource( 1 )

[node name="CanvasLayer" type="CanvasLayer"]

[node name="Fader" type="TextureRect" parent="."]
visible = false
anchor_right = 1.0
anchor_bottom = 1.0
texture = SubResource( 2 )
expand = true
stretch_mode = 1
script = ExtResource( 1 )
__meta__ = {
"_edit_use_anchors_": false
}

[node name="Tween" type="Tween" parent="Fader"]
