[gd_resource type="ShaderMaterial" load_steps=2 format=2]

[ext_resource path="res://src/OutlineEnabled.shader" type="Shader" id=1]

[resource]
resource_local_to_scene = true
shader = ExtResource( 1 )
shader_param/width = 3.0
shader_param/outline_color = Color( 1, 1, 1, 0 )
shader_param/enabled = true
