[gd_scene load_steps=3 format=2]

[ext_resource path="res://src/SlopeArea.gd" type="Script" id=1]

[sub_resource type="RectangleShape2D" id=1]
extents = Vector2( 53.6441, 90.7959 )

[node name="Area2D" type="Area2D"]
position = Vector2( 201.618, 25.8033 )
script = ExtResource( 1 )
__meta__ = {
"_edit_group_": true
}

[node name="CollisionShape2D" type="CollisionShape2D" parent="."]
shape = SubResource( 1 )
[connection signal="body_entered" from="." to="." method="_on_Area2D_body_entered"]
[connection signal="body_exited" from="." to="." method="_on_Area2D_body_exited"]
