[gd_scene load_steps=4 format=2]

[ext_resource path="res://Assets/support.png" type="Texture" id=1]
[ext_resource path="res://Assets/ladder.png" type="Texture" id=2]

[sub_resource type="RectangleShape2D" id=2]
extents = Vector2( 92.2534, 10 )

[node name="Stairs" type="Node2D"]

[node name="Sprite" type="Sprite" parent="."]
texture = ExtResource( 1 )
__meta__ = {
"_edit_lock_": true
}

[node name="Sprite2" type="Sprite" parent="."]
position = Vector2( 2.3396, -52.357 )
texture = ExtResource( 2 )

[node name="StaticBody2D" type="StaticBody2D" parent="."]
position = Vector2( 128.854, -47.1967 )

[node name="CollisionShape2D" type="CollisionShape2D" parent="StaticBody2D"]
position = Vector2( -123.037, -19.0919 )
shape = SubResource( 2 )
one_way_collision = true
