[gd_scene load_steps=8 format=2]

[ext_resource path="res://Assets/water.png" type="Texture" id=1]
[ext_resource path="res://src/ResourceProgress.gd" type="Script" id=2]
[ext_resource path="res://Assets/bar-border.png" type="Texture" id=3]

[sub_resource type="Theme" id=1]

[sub_resource type="StyleBoxFlat" id=2]
bg_color = Color( 0.192157, 0.364706, 0.870588, 1 )

[sub_resource type="StyleBoxFlat" id=3]
bg_color = Color( 0.392157, 0, 0, 1 )

[sub_resource type="Animation" id=4]
resource_name = "Wiggle"
length = 0.5
tracks/0/type = "value"
tracks/0/path = NodePath(".:rect_rotation")
tracks/0/interp = 1
tracks/0/loop_wrap = true
tracks/0/imported = false
tracks/0/enabled = true
tracks/0/keys = {
"times": PoolRealArray( 0, 0.1, 0.2, 0.3, 0.4 ),
"transitions": PoolRealArray( 1, 2.14355, 0.420448, 1, 1 ),
"update": 0,
"values": [ 0.0, -3.0, 3.0, 0.0, 0.0 ]
}
tracks/1/type = "value"
tracks/1/path = NodePath(".:rect_scale")
tracks/1/interp = 1
tracks/1/loop_wrap = true
tracks/1/imported = false
tracks/1/enabled = false
tracks/1/keys = {
"times": PoolRealArray( 0, 0.1, 0.2, 0.3, 0.4 ),
"transitions": PoolRealArray( 1, 2.92817, 0.378929, 1, 1 ),
"update": 0,
"values": [ Vector2( 1, 1 ), Vector2( 0.7, 1 ), Vector2( 1, 1 ), Vector2( 1, 0.7 ), Vector2( 1, 1 ) ]
}

[node name="ElectricityBar" type="ProgressBar"]
margin_left = 43.8729
margin_top = 17.3746
margin_right = 187.873
margin_bottom = 31.3746
rect_min_size = Vector2( 144, 14 )
rect_pivot_offset = Vector2( 72, 7 )
theme = SubResource( 1 )
custom_styles/fg = SubResource( 2 )
custom_styles/bg = SubResource( 3 )
custom_colors/font_color = Color( 1, 1, 1, 1 )
custom_colors/font_color_shadow = Color( 1, 1, 1, 1 )
percent_visible = false
script = ExtResource( 2 )
__meta__ = {
"_edit_use_anchors_": false
}
resource = "thirst"

[node name="AnimationPlayer" type="AnimationPlayer" parent="."]
anims/Wiggle = SubResource( 4 )

[node name="TextureRect" type="TextureRect" parent="."]
margin_left = -5.83483
margin_top = -9.16518
margin_right = 150.165
margin_bottom = 18.8348
texture = ExtResource( 3 )
expand = true
stretch_mode = 5
flip_h = true
__meta__ = {
"_edit_use_anchors_": false
}

[node name="TextureRect2" type="TextureRect" parent="."]
margin_left = 137.112
margin_top = -22.1
margin_right = 167.112
margin_bottom = 23.9
texture = ExtResource( 1 )
expand = true
stretch_mode = 5
__meta__ = {
"_edit_use_anchors_": false
}
