[gd_scene load_steps=4 format=2]

[ext_resource path="res://Assets/water.png" type="Texture" id=1]
[ext_resource path="res://src/WaterDrops.gd" type="Script" id=2]

[sub_resource type="CapsuleShape2D" id=1]
radius = 18.8773

[node name="WaterDrops" type="RigidBody2D"]
collision_layer = 2
collision_mask = 2
mass = 50.0
gravity_scale = 5.0
script = ExtResource( 2 )

[node name="Sprite" type="Sprite" parent="."]
position = Vector2( -0.31498, -0.787446 )
scale = Vector2( 0.482561, 0.386411 )
texture = ExtResource( 1 )

[node name="VisibilityNotifier2D" type="VisibilityNotifier2D" parent="."]
position = Vector2( -0.314988, -2.20486 )
scale = Vector2( 1.78745, 2.98438 )

[node name="CollisionShape2D" type="CollisionShape2D" parent="."]
shape = SubResource( 1 )

[node name="AudioStreamPlayer" type="AudioStreamPlayer" parent="."]
volume_db = -20.0
pitch_scale = 0.6
[connection signal="screen_exited" from="VisibilityNotifier2D" to="." method="_on_screen_exited"]
